{\n  "articles": [\n    {\n      "id": "1",\n      "title": "Article One Title",\n      "excerpt": "This is a brief excerpt for article one.",\n      "category": "Technology",\n      "published_at": "2026-04-15T10:00:00Z",\n      "image_url": "https://example.com/image1.jpg",\n      "relevance_score": 0.95\n    },\n    {\n      "id": "2",\n      "title": "Article Two Title",\n      "excerpt": "This is a brief excerpt for article two.",\n      "category": "Health",\n      "published_at": "2026-04-14T12:00:00Z",\n      "image_url": "https://example.com/image2.jpg",\n      "relevance_score": 0.89\n    }\n  ],\n  "pagination": {\n    "current_page": 1,\n    "total_pages": 5,\n    "total_results": 100\n  }\n}